﻿{
  "ProviderId": "Microsoft.VisualStudio.ConnectedService.Wcf",
  "Version": "15.0.40203.910",
  "GettingStartedDocument": {
    "Uri": "https://go.microsoft.com/fwlink/?linkid=858517"
  },
  "ExtendedData": {
    "inputs": [
      "http://localhost:8733/Design_Time_Addresses/WcfServiceLibrary1/Service1/mex"
    ],
    "collectionTypes": [
      "System.Collections.Generic.Dictionary`2",
      "System.Collections.Generic.List`1"
    ],
    "namespaceMappings": [
      "*, ServiceReference1"
    ],
    "references": [
      "C:\\Development\\BlazorTest\\BlazorGrid\\BlazorGridApp\\bin\\Debug\\netcoreapp3.1\\DTOClasses.dll"
    ],
    "sync": true,
    "targetFramework": "netcoreapp3.1",
    "typeReuseMode": "Specified"
  }
}